<?xml version="1.0" encoding="utf-8"?>
<!-- Generator: Adobe Illustrator 19.2.0, SVG Export Plug-In . SVG Version: 6.00 Build 0)  -->
<svg version="1.1" id="Layer_1" xmlns="http://www.w3.org/2000/svg" xmlns:xlink="http://www.w3.org/1999/xlink" x="0px" y="0px"
	 viewBox="0 0 129.1 40" style="enable-background:new 0 0 129.1 40;" xml:space="preserve">
<style type="text/css">
	.st0{fill:#78C143;}
	.st1{fill:#010101;}
</style>
<g>
	<g>
		<path class="st0" d="M30.8,12.6h-4.3v-2.4l0-0.4c0-5.4-4.4-9.8-9.8-9.8S6.9,4.4,6.9,9.8l0,0.1h0v2.7H2.6c-1.4,0-2.9,0.7-2.6,2.4
			l3.2,14.4c0.3,1.2,1.2,2.1,2.6,2.1h21.7c1.4,0,2.3-0.8,2.6-2.1L33.4,15C33.7,13.3,32.3,12.6,30.8,12.6z M20.9,18.7
			c0,0.2,0,0.4-0.4,0.4h-2c-0.2,0-0.3,0-0.3,0.3v6.8c0,0.4-0.2,0.4-0.7,0.4h-1.9c-0.5,0-0.7-0.1-0.7-0.4v-6.8c0-0.2-0.1-0.3-0.3-0.3
			h-1.8c-0.4,0-0.4-0.2-0.4-0.4V17c0-0.3,0.2-0.4,0.6-0.4h7.3c0.4,0,0.6,0,0.6,0.4V18.7z M23,12.6H10.4v-3h0l0-0.1
			c0-3.5,2.8-6.3,6.3-6.3S23,6,23,9.5l0,0.1h0V12.6z"/>
		<path class="st0" d="M14,36.1c0,2.1-1.7,3.9-3.9,3.9s-3.9-1.7-3.9-3.9c0-2.1,1.7-3.9,3.9-3.9C12.3,32.2,14,34,14,36.1"/>
		<path class="st0" d="M27.2,36.1c0,2.1-1.7,3.9-3.9,3.9c-2.1,0-3.9-1.7-3.9-3.9c0-2.1,1.7-3.9,3.9-3.9C25.4,32.2,27.2,34,27.2,36.1
			"/>
	</g>
	<g>
		<path class="st1" d="M52.8,16.9H49c-0.4,0-0.6,0.1-0.6,0.5v12.9c0,0.7-0.4,0.8-1.3,0.8h-3.7c-1,0-1.3-0.1-1.3-0.8V17.3
			c0-0.4-0.2-0.5-0.6-0.5h-3.5c-0.7,0-0.7-0.3-0.7-0.7V13c0-0.6,0.5-0.7,1.2-0.7h13.8c0.7,0,1.2,0.1,1.2,0.7v3.2
			C53.5,16.5,53.5,16.9,52.8,16.9"/>
		<path class="st1" d="M63.9,17.3c0.2,0,0.6,0,0.6,0.4v3c0,0.3-0.2,0.6-0.6,0.6c-0.7,0-1.8,0-2.4,0.3c-1.1,0.4-1.5,1-1.5,2.1v6.2
			c0,0.7,0,1.4-0.9,1.4h-3.4c-1,0-1.3-0.5-1.3-1.2v-9.6c0-1.6,0.7-3,3.9-3L63.9,17.3"/>
		<path class="st1" d="M69.9,31.2c-1.8,0-3.7-0.8-3.7-4.1v-8.4c0-0.7,0.3-1.4,1-1.4h3.6c0.6,0,1.3,0.4,1.3,1.1v6.7
			c0,0.6,0.2,1.3,1,1.3c0.8,0,1.1-0.6,1.1-1.2v-6.4c0-0.7,0-1.4,0.9-1.4h3.4c1,0,1.3,0.5,1.3,1.2V27c0,3.6-2.2,4.2-3.2,4.2H69.9"/>
		<path class="st1" d="M87.8,31.5c-2.7,0-5.2-0.5-5.7-0.8c-0.3-0.1-0.5-3.8,0.3-3.6c0.6,0.1,1.5,0.5,3.6,0.5c1.1,0,1.8-0.2,1.8-0.7
			c0-0.4-0.6-0.6-1.4-1c-1.7-0.7-4.3-1.7-4.3-4.8c0-3.1,3.5-4.3,6.9-4.3c2.7,0,3.5,0.3,3.9,0.4c0.5,0.2,0,3.4-0.7,3.4
			c-0.5,0-2-0.3-2.9-0.3c-0.9,0-1.3,0.2-1.3,0.6c0,0.2,0.5,0.5,1.3,0.9c1.7,0.8,4.5,2.1,4.5,5.2C93.9,31,90.3,31.5,87.8,31.5"/>
		<path class="st1" d="M103.8,21.1h-1.6v5.6c0,0.5,0.4,0.7,0.9,0.7c0.1,0,0.3,0,0.4,0c0.4-0.1,0.8,3.5,0.5,3.6
			c-0.4,0.2-1.8,0.5-3.2,0.5c-3.4,0-4.3-2.2-4.3-3.7c0-1.5,0-6.7,0-6.7h-0.8c-0.6,0-0.8-0.4-0.8-1.1v-1.7c0-0.7,0.2-1,0.9-1h0.9
			v-1.8c0-0.6,0.6-1,1.3-1.1l3-0.5c1-0.2,1,0.2,1,0.9v2.4h1.6c0.6,0,0.8,0.6,0.8,1.3V20C104.5,20.8,104.5,21.1,103.8,21.1"/>
		<path class="st1" d="M111.3,31.1h-3.7c-0.9,0-1-0.1-1-0.9V12.7c0-0.4,0.3-0.7,0.8-0.7h3.7c1.1,0,1.2,0.3,1.2,0.9v17
			C112.2,30.6,112.2,31.1,111.3,31.1"/>
		<path class="st1" d="M121.7,35.3c-0.2,0.5-0.7,1-1.2,1h-2.9c-0.9,0-1.1-0.3-0.8-0.9l1.9-4.6l-5.1-12.6c-0.2-0.6,0-0.9,0.8-0.9h4.2
			c0.5,0,1,0.5,1.2,1l1.8,5.3l2.1-5.3c0.2-0.5,0.7-1,1.2-1h3.2c0.9,0,1.1,0.3,0.8,0.9L121.7,35.3"/>
	</g>
</g>
</svg>
