<?xml version="1.0" encoding="utf-8"?>
<!-- Generator: Adobe Illustrator 19.2.0, SVG Export Plug-In . SVG Version: 6.00 Build 0)  -->
<svg version="1.1" id="Layer_1" xmlns="http://www.w3.org/2000/svg" xmlns:xlink="http://www.w3.org/1999/xlink" x="0px" y="0px"
	 width="500px" height="299.8px" viewBox="0 0 500 299.8" style="enable-background:new 0 0 500 299.8;" xml:space="preserve">
<style type="text/css">
	.st0{fill:#BFBFBF;}
</style>
<path id="Wirecard" class="st0" d="M0.4,127.3c0.6,0,1-0.1,1.5-0.1c4.4,0,8.9,0,13.3,0c1.1,0,1.5,0.3,1.8,1.4
	c3.3,12.5,6.6,25.1,9.8,37.6c1,3.8,2,7.7,3,11.5c0.1,0.5,0.3,0.9,0.7,1.4c5.2-17.1,9.2-34.5,13.7-51.8c5.2,0,10.2,0,15.4,0
	c1.1,4.3,2.2,8.6,3.3,12.8c3,12.4,6,24.8,9,37.2c0,0.2,0,0.3,0.1,0.5c0.3,0.5,0.7,0.9,1,1.3c0.3-0.4,0.7-0.8,0.9-1.3
	c0.7-2.4,1.3-4.8,2-7.2c3.7-13.9,7.4-27.9,11-41.8c0.3-1.1,0.7-1.6,2-1.6c4.2,0.1,8.3,0,12.5,0c0.5,0,1,0,1.7,0.1
	c-1.1,3.5-2.1,6.9-3.1,10.3c-6.1,19.6-12.2,39.3-18.3,58.9c-0.3,1-0.7,1.4-1.8,1.4c-4.8-0.1-9.6,0-14.5,0
	c-4.4-17.3-8.7-34.5-13.1-51.8c-0.2,0-0.4,0-0.7,0c-0.2,0.4-0.4,0.9-0.5,1.3c-4,16.1-8,32.2-11.9,48.4c-0.3,1.2-0.7,1.7-2,1.7
	c-4.5-0.1-9-0.1-13.4,0c-0.9,0-1.4-0.2-1.7-1.1c-7.1-22.7-14.2-45.4-21.3-68.1C0.5,128,0.5,127.7,0.4,127.3z M484.7,135.8
	c-0.2-0.2-0.4-0.4-0.6-0.7c-2.3-2.5-4.7-4.8-7.8-6.5c-6.3-3.4-13-3.8-20-2.7c-10.3,1.6-17.4,7.2-21.6,16.6
	c-4.1,9.2-5.1,18.8-3.3,28.7c1.3,7.3,4,13.9,9.1,19.4c6.4,6.8,14.4,9.3,23.6,9.1c8.6-0.2,15.9-3,21.2-10c0.1-0.2,0.4-0.2,0.8-0.5
	c0,3,0,5.7,0,8.5c4.9,0,9.6,0,14.3,0c0-32.5,0-64.8,0-97.2c-5.1,0-10.1,0-15.3,0c0,11.8,0,23.5,0,35.2
	C485,135.7,484.8,135.8,484.7,135.8z M479.8,181.6c-4.3,5.5-10.3,7-16.9,6.1c-6.4-0.9-10.7-4.6-13.6-10.3c-3-5.7-3.6-11.6-3.1-17.9
	c0.3-3.6,0.9-7.1,2.3-10.5c3.1-7.3,8.6-11.3,16.6-11.8c9.4-0.5,15.6,4.4,18.3,12.4c1.4,4.1,2.3,8.3,2.4,13.6
	C485.7,169.4,484.2,176,479.8,181.6z M334.5,147.4c0.9-4.2,3.3-7.3,7.4-8.7c1.8-0.6,3.8-0.8,5.8-1c4.6-0.7,8.9-0.1,13,2.1
	c5,2.7,5.7,10,1.1,13.2c-1.5,1-3.4,1.7-5.1,2c-7.7,1.4-15.5,2.6-23.2,4.1c-5.6,1-10.6,3.3-13.9,8.2c-2.8,4.1-3.3,8.8-3.1,13.7
	c0.3,7.9,4.4,13.2,11.3,16.2c10.6,4.5,21,3.6,31.1-2c2.1-1.2,4.2-2.4,6.1-3.6c0.8,1.7,1.3,3.3,2.2,4.6c1.5,2.1,3.7,3.1,6.2,3.4
	c4.1,0.4,8.1,0.4,12-1.2c0.5-0.2,1.2-0.8,1.2-1.2c0.1-3.1,0.1-6.1,0.1-9.2c-1.5-0.1-2.9-0.2-4.2-0.4c-2.3-0.4-2.8-1-3-3.2
	c-0.1-1.5-0.2-3-0.2-4.5c0-11.3,0-22.5,0-33.8c0-1.3,0-2.7-0.3-4c-1.5-7.3-6.2-11.6-13-14c-10-3.5-20.1-3.4-30.2-0.4
	c-6.3,1.9-11.6,5.2-14.4,11.5c-1.3,2.9-2.4,6-2.1,9.3c5.1,0,10.1,0,15.1,0C334.3,148,334.4,147.7,334.5,147.4z M363.7,176
	c-0.1,3-1.8,5.5-4.2,7.2c-7.4,5.3-15.3,5.9-23.5,2.1c-3.6-1.6-4.6-3.9-4.1-8.2c0.4-3.8,2.2-6.6,5.8-8.3c3.6-1.8,7.5-2.4,11.4-3
	c4.9-0.9,10-0.8,14.7-3.7C363.8,167,364,171.5,363.7,176z M227.5,175.6c-2.4-0.1-3.9,0.8-4.8,3.1c-0.9,2.6-2.7,4.5-5,6.1
	c-4.4,2.9-9.3,3.3-14.2,2.8c-2.4-0.2-4.9-1-6.9-2.2c-6.2-3.9-8.3-10.1-8.7-17c-0.1-1.4,0.4-1.8,1.9-1.8c16.1,0.1,32.1,0,48.2,0
	c0.6,0,1.2,0,1.9,0c0-4.8,0.1-9.3-0.9-13.9c-1.6-8.1-5.3-14.7-11.8-19.9c-10.2-8.2-26.1-9.8-37.5-3.2c-8.2,4.8-13.1,12.2-15.7,21.1
	c-2.9,9.6-2,19.2,1.3,28.5c1.7,4.7,4.2,9,8,12.3c6.2,5.4,13.5,8,21.6,8.2c11.1,0.3,20.9-2.7,28.1-11.8c2.8-3.6,4.8-7.5,5.3-12.3
	C234.7,175.7,231.1,175.7,227.5,175.6z M222.4,156.2c-10.9,0-21.8,0-32.7,0c-1,0-1.8,0-1.7-1.5c0.4-6.5,3.2-11.6,8.8-15
	c8-4.9,18.1-2.7,23.6,4.9c2.5,3.4,3.8,7.1,3.6,11.5C223.4,156.2,222.9,156.2,222.4,156.2z M310.7,147.9
	c-1.8-10.2-7.8-16.8-17.5-20.3c-9.2-3.3-18.4-3-27.5,0.3c-8.8,3.2-14.8,9.5-18.2,18.2c-3.6,9.2-4,18.7-1.7,28.4
	c1.7,7.1,4.9,13.3,10.6,17.9c8,6.4,17.3,8.5,27.4,7.3c5.3-0.6,10.1-2.3,14.4-5.4c7.7-5.5,11.1-13.2,12.5-22.4c-0.7,0-1.3,0-1.8,0
	c-3.6,0-7.3,0-10.9,0c-2.4,0-2.6,0.2-3,2.5c-1,5.4-4.2,9.4-9,11.8c-8.4,4.3-21.6,0.4-24.8-12.5c-1.6-6.5-1.5-13-0.4-19.5
	c2.2-12.8,11.7-18.2,22.1-16.7c5,0.7,9.1,3,11.2,7.9c0.6,1.4,1,2.8,1.6,4.2c0.2,0.4,0.8,0.8,1.2,0.8c4.5,0.1,9.1,0,13.8,0
	C310.8,149.5,310.9,148.7,310.7,147.9z M134.3,197.3c5,0,9.8,0,14.8,0c0-0.7,0-1.4,0-2c0-10.6,0-21.2,0-31.7c0-4.4,0.8-8.7,2.8-12.7
	c3.4-6.7,9.8-13,19.8-10.7c1,0.2,2.1,0,3.2,0c0.1-1.2,0.3-2.3,0.3-3.4c0-3-0.1-6-0.2-9c0-0.9-0.2-2-1.5-2c-2.8,0-5.6-0.4-8.2,0.2
	c-7.2,1.4-12.2,6-15.9,12.1c-0.3,0.5-0.6,1-0.9,1.5c-0.1,0-0.3-0.1-0.4-0.1c0-4,0-7.9,0-12c-4.7,0-9.2,0-13.7,0
	C134.3,150.7,134.3,174,134.3,197.3z M407.6,195.7c0-10.2,0.1-20.3,0-30.5c0-4.6,0.7-8.9,2.5-13.1c3-7.3,8.2-11.7,16.2-12.2
	c1.9-0.1,3.8-0.1,5.7-0.1c0.8,0,1.3-0.3,1.3-1.2c0-3.9,0-7.8,0-11.7c0-0.4-0.7-1.1-1.1-1.2c-4.7-0.6-9.2-0.3-13.5,2
	c-4.9,2.6-8.1,6.7-10.8,11.4c-0.3,0.4-0.6,0.9-0.9,1.3c-0.1,0-0.3-0.1-0.4-0.1c0-4.1,0-8.3,0-12.4c-4.7,0-9.3,0-13.8,0
	c0,23.4,0,46.6,0,69.8c4.9,0,9.8,0,14.8,0C407.6,196.9,407.6,196.3,407.6,195.7z M109.9,197.4c4.5,0,9,0,13.4,0
	c1.2,0,1.5-0.4,1.5-1.5c0-3,0.2-6,0.2-9.1c0-13.1,0.1-26.2,0.1-39.2c0-6.2-0.2-12.4-0.3-18.6c0-1.4-0.4-1.9-1.9-1.8
	c-4.3,0.3-8.6,0.4-13.1,0.6C109.9,151.1,109.9,174.2,109.9,197.4z M124.6,100.1c-5,0-9.9,0-14.8,0c0,5.1,0,10.1,0,15.1
	c4.9,0,9.7,0,14.8,0C125.2,110,125.4,105,124.6,100.1z"/>
</svg>
