<?xml version="1.0" standalone="no"?>
<!DOCTYPE svg PUBLIC "-//W3C//DTD SVG 20010904//EN"
 "http://www.w3.org/TR/2001/REC-SVG-20010904/DTD/svg10.dtd">
<svg version="1.0" xmlns="http://www.w3.org/2000/svg"
 width="700.000000pt" height="700.000000pt" viewBox="0 0 700.000000 700.000000"
 preserveAspectRatio="xMidYMid meet">
<metadata>
Created by potrace 1.11, written by Peter Selinger 2001-2013
</metadata>
<g transform="translate(0.000000,700.000000) scale(0.100000,-0.100000)"
fill="#000000" stroke="none">
<path d="M579 6332 c0 -15 -1 -187 -1 -382 l-1 -355 1292 -3 c710 -1 1291 -4
1291 -7 0 -5 -63 -150 -106 -243 -19 -41 -34 -75 -34 -77 0 -2 -17 -41 -39
-87 -21 -46 -53 -117 -71 -158 -30 -70 -48 -110 -98 -220 -51 -113 -121 -270
-199 -445 -46 -104 -93 -208 -103 -230 -10 -22 -76 -168 -145 -325 -70 -157
-156 -350 -191 -429 -36 -79 -74 -164 -85 -190 -31 -69 -138 -308 -166 -371
-14 -30 -51 -113 -83 -185 -32 -71 -69 -155 -83 -185 -14 -30 -44 -98 -67
-150 -23 -52 -50 -113 -60 -135 -17 -37 -119 -266 -170 -380 -12 -27 -37 -83
-56 -123 -19 -40 -34 -75 -34 -77 0 -3 -13 -34 -30 -69 -16 -36 -36 -81 -44
-100 l-14 -34 478 0 478 0 18 42 c10 22 33 74 51 114 18 41 33 75 33 77 0 2
16 39 36 82 20 43 40 87 44 98 4 11 96 218 203 460 107 242 271 613 365 825
93 212 257 581 362 820 106 239 243 550 305 690 62 140 121 275 133 300 11 25
73 164 137 310 150 341 135 307 195 440 l52 115 2 290 c1 160 0 297 -2 307 -4
15 -136 16 -1798 16 l-1794 1 -1 -27z"/>
<path d="M4784 5643 c-30 -63 -54 -116 -54 -118 0 -1 -27 -59 -60 -128 -33
-70 -60 -128 -60 -131 0 -2 -31 -70 -70 -150 -38 -81 -70 -148 -70 -151 0 -2
-20 -46 -44 -97 -24 -51 -85 -183 -136 -293 -51 -110 -107 -231 -125 -270 -95
-204 -231 -497 -252 -545 -14 -30 -43 -93 -65 -140 -22 -47 -80 -170 -128
-275 -48 -104 -104 -226 -125 -270 -20 -44 -90 -195 -155 -335 -65 -140 -135
-293 -157 -340 -22 -47 -48 -103 -58 -125 -10 -22 -35 -76 -55 -120 -65 -138
-152 -326 -314 -680 -32 -70 -33 -71 -35 -250 -2 -99 -4 -233 -5 -297 -1 -65
0 -119 3 -119 16 -3 376 -11 1166 -24 537 -9 972 -17 1145 -20 107 -2 359 -6
560 -10 201 -3 445 -8 543 -10 l177 -3 1 91 c0 51 2 166 4 257 7 357 7 411 2
417 -6 5 -75 7 -742 18 -220 4 -465 8 -545 10 -80 1 -354 6 -610 10 -481 8
-660 12 -672 14 -10 1 -1 24 55 141 24 52 92 196 150 320 101 217 142 305 223
475 20 44 38 82 39 85 1 3 18 41 39 85 21 44 51 107 66 140 15 33 55 118 89
189 33 70 61 130 61 131 0 2 24 54 54 116 29 63 101 215 159 339 57 124 124
266 147 315 23 50 73 155 110 235 69 147 120 256 192 410 22 47 53 112 68 145
15 33 47 101 70 150 23 50 53 113 65 140 13 28 98 209 189 404 91 195 164 356
162 358 -2 2 -131 6 -287 9 -156 3 -369 6 -472 8 l-189 4 -54 -115z"/>
</g>
</svg>
